<?xml version="1.0" encoding="UTF-8"?>
<robot generated="20170625 23:12:26.459" generator="Robot 3.0.2 (Python 2.7.11 on darwin)">
<suite source="/Users/Niroshan/Sites/robot-framework-course/variables - scalar/tests" id="s1" name="Tests">
<suite source="/Users/Niroshan/Sites/robot-framework-course/variables - scalar/tests/Scalar.robot" id="s1-s1" name="Scalar">
<test id="s1-s1-t1" name="Set a variable in the test case">
<kw name="Set Variable" library="BuiltIn">
<doc>Returns the given values which can then be assigned to a variables.</doc>
<arguments>
<arg>Something else</arg>
</arguments>
<assign>
<var>${my_new_variable}</var>
</assign>
<msg timestamp="20170625 23:12:26.483" level="INFO">${my_new_variable} = Something else</msg>
<status status="PASS" endtime="20170625 23:12:26.483" starttime="20170625 23:12:26.483"></status>
</kw>
<kw name="Log" library="BuiltIn">
<doc>Logs the given message with the given level.</doc>
<arguments>
<arg>${my_new_variable}</arg>
</arguments>
<msg timestamp="20170625 23:12:26.483" level="INFO">Something else</msg>
<status status="PASS" endtime="20170625 23:12:26.483" starttime="20170625 23:12:26.483"></status>
</kw>
<tags>
<tag>Current</tag>
</tags>
<status status="PASS" endtime="20170625 23:12:26.484" critical="yes" starttime="20170625 23:12:26.482"></status>
</test>
<status status="PASS" endtime="20170625 23:12:26.484" starttime="20170625 23:12:26.481"></status>
</suite>
<status status="PASS" endtime="20170625 23:12:26.484" starttime="20170625 23:12:26.462"></status>
</suite>
<statistics>
<total>
<stat fail="0" pass="1">Critical Tests</stat>
<stat fail="0" pass="1">All Tests</stat>
</total>
<tag>
<stat fail="0" pass="1">Current</stat>
</tag>
<suite>
<stat fail="0" id="s1" name="Tests" pass="1">Tests</stat>
<stat fail="0" id="s1-s1" name="Scalar" pass="1">Tests.Scalar</stat>
</suite>
</statistics>
<errors>
</errors>
</robot>
